mips-SemUC_restored/mips_restored/simulation/qsim/mips.msim.vcd
$comment
	File created using the following command:
		vcd file mips.msim.vcd -direction
$end
$date
	Mon Dec 02 22:37:51 2019
$end
$version
	ModelSim Version 10.5b
$end
$timescale
	1ps
$end

$scope module mips_vhd_vec_tst $end
$var wire 1 ! clk $end
$var wire 1 " KEY [3] $end
$var wire 1 # KEY [2] $end
$var wire 1 $ KEY [1] $end
$var wire 1 % KEY [0] $end
$var wire 1 & pcWF [31] $end
$var wire 1 ' pcWF [30] $end
$var wire 1 ( pcWF [29] $end
$var wire 1 ) pcWF [28] $end
$var wire 1 * pcWF [27] $end
$var wire 1 + pcWF [26] $end
$var wire 1 , pcWF [25] $end
$var wire 1 - pcWF [24] $end
$var wire 1 . pcWF [23] $end
$var wire 1 / pcWF [22] $end
$var wire 1 0 pcWF [21] $end
$var wire 1 1 pcWF [20] $end
$var wire 1 2 pcWF [19] $end
$var wire 1 3 pcWF [18] $end
$var wire 1 4 pcWF [17] $end
$var wire 1 5 pcWF [16] $end
$var wire 1 6 pcWF [15] $end
$var wire 1 7 pcWF [14] $end
$var wire 1 8 pcWF [13] $end
$var wire 1 9 pcWF [12] $end
$var wire 1 : pcWF [11] $end
$var wire 1 ; pcWF [10] $end
$var wire 1 < pcWF [9] $end
$var wire 1 = pcWF [8] $end
$var wire 1 > pcWF [7] $end
$var wire 1 ? pcWF [6] $end
$var wire 1 @ pcWF [5] $end
$var wire 1 A pcWF [4] $end
$var wire 1 B pcWF [3] $end
$var wire 1 C pcWF [2] $end
$var wire 1 D pcWF [1] $end
$var wire 1 E pcWF [0] $end
$var wire 1 F saida_ULAWF [31] $end
$var wire 1 G saida_ULAWF [30] $end
$var wire 1 H saida_ULAWF [29] $end
$var wire 1 I saida_ULAWF [28] $end
$var wire 1 J saida_ULAWF [27] $end
$var wire 1 K saida_ULAWF [26] $end
$var wire 1 L saida_ULAWF [25] $end
$var wire 1 M saida_ULAWF [24] $end
$var wire 1 N saida_ULAWF [23] $end
$var wire 1 O saida_ULAWF [22] $end
$var wire 1 P saida_ULAWF [21] $end
$var wire 1 Q saida_ULAWF [20] $end
$var wire 1 R saida_ULAWF [19] $end
$var wire 1 S saida_ULAWF [18] $end
$var wire 1 T saida_ULAWF [17] $end
$var wire 1 U saida_ULAWF [16] $end
$var wire 1 V saida_ULAWF [15] $end
$var wire 1 W saida_ULAWF [14] $end
$var wire 1 X saida_ULAWF [13] $end
$var wire 1 Y saida_ULAWF [12] $end
$var wire 1 Z saida_ULAWF [11] $end
$var wire 1 [ saida_ULAWF [10] $end
$var wire 1 \ saida_ULAWF [9] $end
$var wire 1 ] saida_ULAWF [8] $end
$var wire 1 ^ saida_ULAWF [7] $end
$var wire 1 _ saida_ULAWF [6] $end
$var wire 1 ` saida_ULAWF [5] $end
$var wire 1 a saida_ULAWF [4] $end
$var wire 1 b saida_ULAWF [3] $end
$var wire 1 c saida_ULAWF [2] $end
$var wire 1 d saida_ULAWF [1] $end
$var wire 1 e saida_ULAWF [0] $end
$var wire 1 f ZWF $end

$scope module i1 $end
$var wire 1 g gnd $end
$var wire 1 h vcc $end
$var wire 1 i unknown $end
$var wire 1 j devoe $end
$var wire 1 k devclrn $end
$var wire 1 l devpor $end
$var wire 1 m ww_devoe $end
$var wire 1 n ww_devclrn $end
$var wire 1 o ww_devpor $end
$var wire 1 p ww_clk $end
$var wire 1 q ww_KEY [3] $end
$var wire 1 r ww_KEY [2] $end
$var wire 1 s ww_KEY [1] $end
$var wire 1 t ww_KEY [0] $end
$var wire 1 u ww_saida_ULAWF [31] $end
$var wire 1 v ww_saida_ULAWF [30] $end
$var wire 1 w ww_saida_ULAWF [29] $end
$var wire 1 x ww_saida_ULAWF [28] $end
$var wire 1 y ww_saida_ULAWF [27] $end
$var wire 1 z ww_saida_ULAWF [26] $end
$var wire 1 { ww_saida_ULAWF [25] $end
$var wire 1 | ww_saida_ULAWF [24] $end
$var wire 1 } ww_saida_ULAWF [23] $end
$var wire 1 ~ ww_saida_ULAWF [22] $end
$var wire 1 !! ww_saida_ULAWF [21] $end
$var wire 1 "! ww_saida_ULAWF [20] $end
$var wire 1 #! ww_saida_ULAWF [19] $end
$var wire 1 $! ww_saida_ULAWF [18] $end
$var wire 1 %! ww_saida_ULAWF [17] $end
$var wire 1 &! ww_saida_ULAWF [16] $end
$var wire 1 '! ww_saida_ULAWF [15] $end
$var wire 1 (! ww_saida_ULAWF [14] $end
$var wire 1 )! ww_saida_ULAWF [13] $end
$var wire 1 *! ww_saida_ULAWF [12] $end
$var wire 1 +! ww_saida_ULAWF [11] $end
$var wire 1 ,! ww_saida_ULAWF [10] $end
$var wire 1 -! ww_saida_ULAWF [9] $end
$var wire 1 .! ww_saida_ULAWF [8] $end
$var wire 1 /! ww_saida_ULAWF [7] $end
$var wire 1 0! ww_saida_ULAWF [6] $end
$var wire 1 1! ww_saida_ULAWF [5] $end
$var wire 1 2! ww_saida_ULAWF [4] $end
$var wire 1 3! ww_saida_ULAWF [3] $end
$var wire 1 4! ww_saida_ULAWF [2] $end
$var wire 1 5! ww_saida_ULAWF [1] $end
$var wire 1 6! ww_saida_ULAWF [0] $end
$var wire 1 7! ww_pcWF [31] $end
$var wire 1 8! ww_pcWF [30] $end
$var wire 1 9! ww_pcWF [29] $end
$var wire 1 :! ww_pcWF [28] $end
$var wire 1 ;! ww_pcWF [27] $end
$var wire 1 <! ww_pcWF [26] $end
$var wire 1 =! ww_pcWF [25] $end
$var wire 1 >! ww_pcWF [24] $end
$var wire 1 ?! ww_pcWF [23] $end
$var wire 1 @! ww_pcWF [22] $end
$var wire 1 A! ww_pcWF [21] $end
$var wire 1 B! ww_pcWF [20] $end
$var wire 1 C! ww_pcWF [19] $end
$var wire 1 D! ww_pcWF [18] $end
$var wire 1 E! ww_pcWF [17] $end
$var wire 1 F! ww_pcWF [16] $end
$var wire 1 G! ww_pcWF [15] $end
$var wire 1 H! ww_pcWF [14] $end
$var wire 1 I! ww_pcWF [13] $end
$var wire 1 J! ww_pcWF [12] $end
$var wire 1 K! ww_pcWF [11] $end
$var wire 1 L! ww_pcWF [10] $end
$var wire 1 M! ww_pcWF [9] $end
$var wire 1 N! ww_pcWF [8] $end
$var wire 1 O! ww_pcWF [7] $end
$var wire 1 P! ww_pcWF [6] $end
$var wire 1 Q! ww_pcWF [5] $end
$var wire 1 R! ww_pcWF [4] $end
$var wire 1 S! ww_pcWF [3] $end
$var wire 1 T! ww_pcWF [2] $end
$var wire 1 U! ww_pcWF [1] $end
$var wire 1 V! ww_pcWF [0] $end
$var wire 1 W! ww_ZWF $end
$var wire 1 X! \clk~inputclkctrl_INCLK_bus\ [3] $end
$var wire 1 Y! \clk~inputclkctrl_INCLK_bus\ [2] $end
$var wire 1 Z! \clk~inputclkctrl_INCLK_bus\ [1] $end
$var wire 1 [! \clk~inputclkctrl_INCLK_bus\ [0] $end
$var wire 1 \! \KEY[0]~input_o\ $end
$var wire 1 ]! \KEY[1]~input_o\ $end
$var wire 1 ^! \KEY[2]~input_o\ $end
$var wire 1 _! \KEY[3]~input_o\ $end
$var wire 1 `! \saida_ULAWF[0]~output_o\ $end
$var wire 1 a! \saida_ULAWF[1]~output_o\ $end
$var wire 1 b! \saida_ULAWF[2]~output_o\ $end
$var wire 1 c! \saida_ULAWF[3]~output_o\ $end
$var wire 1 d! \saida_ULAWF[4]~output_o\ $end
$var wire 1 e! \saida_ULAWF[5]~output_o\ $end
$var wire 1 f! \saida_ULAWF[6]~output_o\ $end
$var wire 1 g! \saida_ULAWF[7]~output_o\ $end
$var wire 1 h! \saida_ULAWF[8]~output_o\ $end
$var wire 1 i! \saida_ULAWF[9]~output_o\ $end
$var wire 1 j! \saida_ULAWF[10]~output_o\ $end
$var wire 1 k! \saida_ULAWF[11]~output_o\ $end
$var wire 1 l! \saida_ULAWF[12]~output_o\ $end
$var wire 1 m! \saida_ULAWF[13]~output_o\ $end
$var wire 1 n! \saida_ULAWF[14]~output_o\ $end
$var wire 1 o! \saida_ULAWF[15]~output_o\ $end
$var wire 1 p! \saida_ULAWF[16]~output_o\ $end
$var wire 1 q! \saida_ULAWF[17]~output_o\ $end
$var wire 1 r! \saida_ULAWF[18]~output_o\ $end
$var wire 1 s! \saida_ULAWF[19]~output_o\ $end
$var wire 1 t! \saida_ULAWF[20]~output_o\ $end
$var wire 1 u! \saida_ULAWF[21]~output_o\ $end
$var wire 1 v! \saida_ULAWF[22]~output_o\ $end
$var wire 1 w! \saida_ULAWF[23]~output_o\ $end
$var wire 1 x! \saida_ULAWF[24]~output_o\ $end
$var wire 1 y! \saida_ULAWF[25]~output_o\ $end
$var wire 1 z! \saida_ULAWF[26]~output_o\ $end
$var wire 1 {! \saida_ULAWF[27]~output_o\ $end
$var wire 1 |! \saida_ULAWF[28]~output_o\ $end
$var wire 1 }! \saida_ULAWF[29]~output_o\ $end
$var wire 1 ~! \saida_ULAWF[30]~output_o\ $end
$var wire 1 !" \saida_ULAWF[31]~output_o\ $end
$var wire 1 "" \pcWF[0]~output_o\ $end
$var wire 1 #" \pcWF[1]~output_o\ $end
$var wire 1 $" \pcWF[2]~output_o\ $end
$var wire 1 %" \pcWF[3]~output_o\ $end
$var wire 1 &" \pcWF[4]~output_o\ $end
$var wire 1 '" \pcWF[5]~output_o\ $end
$var wire 1 (" \pcWF[6]~output_o\ $end
$var wire 1 )" \pcWF[7]~output_o\ $end
$var wire 1 *" \pcWF[8]~output_o\ $end
$var wire 1 +" \pcWF[9]~output_o\ $end
$var wire 1 ," \pcWF[10]~output_o\ $end
$var wire 1 -" \pcWF[11]~output_o\ $end
$var wire 1 ." \pcWF[12]~output_o\ $end
$var wire 1 /" \pcWF[13]~output_o\ $end
$var wire 1 0" \pcWF[14]~output_o\ $end
$var wire 1 1" \pcWF[15]~output_o\ $end
$var wire 1 2" \pcWF[16]~output_o\ $end
$var wire 1 3" \pcWF[17]~output_o\ $end
$var wire 1 4" \pcWF[18]~output_o\ $end
$var wire 1 5" \pcWF[19]~output_o\ $end
$var wire 1 6" \pcWF[20]~output_o\ $end
$var wire 1 7" \pcWF[21]~output_o\ $end
$var wire 1 8" \pcWF[22]~output_o\ $end
$var wire 1 9" \pcWF[23]~output_o\ $end
$var wire 1 :" \pcWF[24]~output_o\ $end
$var wire 1 ;" \pcWF[25]~output_o\ $end
$var wire 1 <" \pcWF[26]~output_o\ $end
$var wire 1 =" \pcWF[27]~output_o\ $end
$var wire 1 >" \pcWF[28]~output_o\ $end
$var wire 1 ?" \pcWF[29]~output_o\ $end
$var wire 1 @" \pcWF[30]~output_o\ $end
$var wire 1 A" \pcWF[31]~output_o\ $end
$var wire 1 B" \ZWF~output_o\ $end
$var wire 1 C" \clk~input_o\ $end
$var wire 1 D" \clk~inputclkctrl_outclk\ $end
$var wire 1 E" \FD|Somador|saida[2]~1\ $end
$var wire 1 F" \FD|Somador|saida[3]~2_combout\ $end
$var wire 1 G" \FD|mux_jump|saida[3]~1_combout\ $end
$var wire 1 H" \FD|Somador|saida[3]~3\ $end
$var wire 1 I" \FD|Somador|saida[4]~4_combout\ $end
$var wire 1 J" \FD|mux_jump|saida[4]~2_combout\ $end
$var wire 1 K" \FD|Somador|saida[4]~5\ $end
$var wire 1 L" \FD|Somador|saida[5]~6_combout\ $end
$var wire 1 M" \FD|mux_jump|saida[5]~3_combout\ $end
$var wire 1 N" \FD|Somador|saida[5]~7\ $end
$var wire 1 O" \FD|Somador|saida[6]~8_combout\ $end
$var wire 1 P" \FD|mux_jump|saida[6]~4_combout\ $end
$var wire 1 Q" \FD|Somador|saida[6]~9\ $end
$var wire 1 R" \FD|Somador|saida[7]~10_combout\ $end
$var wire 1 S" \FD|mux_jump|saida[7]~5_combout\ $end
$var wire 1 T" \UC|Equal0~0_combout\ $end
$var wire 1 U" \UC|Equal0~1_combout\ $end
$var wire 1 V" \FD|Somador|saida[2]~0_combout\ $end
$var wire 1 W" \FD|mux_jump|saida[2]~0_combout\ $end
$var wire 1 X" \FD|Somador|saida[7]~11\ $end
$var wire 1 Y" \FD|Somador|saida[8]~12_combout\ $end
$var wire 1 Z" \FD|mux_jump|saida[8]~6_combout\ $end
$var wire 1 [" \FD|Somador|saida[8]~13\ $end
$var wire 1 \" \FD|Somador|saida[9]~14_combout\ $end
$var wire 1 ]" \FD|mux_jump|saida[9]~7_combout\ $end
$var wire 1 ^" \FD|Somador|saida[9]~15\ $end
$var wire 1 _" \FD|Somador|saida[10]~16_combout\ $end
$var wire 1 `" \FD|mux_jump|saida[10]~8_combout\ $end
$var wire 1 a" \FD|Somador|saida[10]~17\ $end
$var wire 1 b" \FD|Somador|saida[11]~18_combout\ $end
$var wire 1 c" \FD|mux_jump|saida[11]~9_combout\ $end
$var wire 1 d" \FD|Somador|saida[11]~19\ $end
$var wire 1 e" \FD|Somador|saida[12]~20_combout\ $end
$var wire 1 f" \FD|mux_jump|saida[12]~10_combout\ $end
$var wire 1 g" \FD|Somador|saida[12]~21\ $end
$var wire 1 h" \FD|Somador|saida[13]~22_combout\ $end
$var wire 1 i" \FD|mux_jump|saida[13]~11_combout\ $end
$var wire 1 j" \FD|Somador|saida[13]~23\ $end
$var wire 1 k" \FD|Somador|saida[14]~24_combout\ $end
$var wire 1 l" \FD|mux_jump|saida[14]~12_combout\ $end
$var wire 1 m" \FD|Somador|saida[14]~25\ $end
$var wire 1 n" \FD|Somador|saida[15]~26_combout\ $end
$var wire 1 o" \FD|mux_jump|saida[15]~13_combout\ $end
$var wire 1 p" \FD|Somador|saida[15]~27\ $end
$var wire 1 q" \FD|Somador|saida[16]~28_combout\ $end
$var wire 1 r" \FD|mux_jump|saida[16]~14_combout\ $end
$var wire 1 s" \FD|Somador|saida[16]~29\ $end
$var wire 1 t" \FD|Somador|saida[17]~30_combout\ $end
$var wire 1 u" \FD|mux_jump|saida[17]~15_combout\ $end
$var wire 1 v" \FD|Somador|saida[17]~31\ $end
$var wire 1 w" \FD|Somador|saida[18]~32_combout\ $end
$var wire 1 x" \FD|mux_jump|saida[18]~16_combout\ $end
$var wire 1 y" \FD|Somador|saida[18]~33\ $end
$var wire 1 z" \FD|Somador|saida[19]~34_combout\ $end
$var wire 1 {" \FD|mux_jump|saida[19]~17_combout\ $end
$var wire 1 |" \FD|Somador|saida[19]~35\ $end
$var wire 1 }" \FD|Somador|saida[20]~36_combout\ $end
$var wire 1 ~" \FD|mux_jump|saida[20]~18_combout\ $end
$var wire 1 !# \FD|Somador|saida[20]~37\ $end
$var wire 1 "# \FD|Somador|saida[21]~38_combout\ $end
$var wire 1 ## \FD|mux_jump|saida[21]~19_combout\ $end
$var wire 1 $# \FD|Somador|saida[21]~39\ $end
$var wire 1 %# \FD|Somador|saida[22]~40_combout\ $end
$var wire 1 &# \FD|mux_jump|saida[22]~20_combout\ $end
$var wire 1 '# \FD|Somador|saida[22]~41\ $end
$var wire 1 (# \FD|Somador|saida[23]~42_combout\ $end
$var wire 1 )# \FD|mux_jump|saida[23]~21_combout\ $end
$var wire 1 *# \FD|Somador|saida[23]~43\ $end
$var wire 1 +# \FD|Somador|saida[24]~44_combout\ $end
$var wire 1 ,# \FD|mux_jump|saida[24]~22_combout\ $end
$var wire 1 -# \FD|Somador|saida[24]~45\ $end
$var wire 1 .# \FD|Somador|saida[25]~46_combout\ $end
$var wire 1 /# \FD|mux_jump|saida[25]~23_combout\ $end
$var wire 1 0# \FD|Somador|saida[25]~47\ $end
$var wire 1 1# \FD|Somador|saida[26]~48_combout\ $end
$var wire 1 2# \FD|mux_jump|saida[26]~24_combout\ $end
$var wire 1 3# \FD|Somador|saida[26]~49\ $end
$var wire 1 4# \FD|Somador|saida[27]~50_combout\ $end
$var wire 1 5# \FD|mux_jump|saida[27]~25_combout\ $end
$var wire 1 6# \FD|Somador|saida[27]~51\ $end
$var wire 1 7# \FD|Somador|saida[28]~52_combout\ $end
$var wire 1 8# \FD|Somador|saida[28]~53\ $end
$var wire 1 9# \FD|Somador|saida[29]~54_combout\ $end
$var wire 1 :# \FD|Somador|saida[29]~55\ $end
$var wire 1 ;# \FD|Somador|saida[30]~56_combout\ $end
$var wire 1 <# \FD|Somador|saida[30]~57\ $end
$var wire 1 =# \FD|Somador|saida[31]~58_combout\ $end
$var wire 1 ># \FD|PC|data_s\ [31] $end
$var wire 1 ?# \FD|PC|data_s\ [30] $end
$var wire 1 @# \FD|PC|data_s\ [29] $end
$var wire 1 A# \FD|PC|data_s\ [28] $end
$var wire 1 B# \FD|PC|data_s\ [27] $end
$var wire 1 C# \FD|PC|data_s\ [26] $end
$var wire 1 D# \FD|PC|data_s\ [25] $end
$var wire 1 E# \FD|PC|data_s\ [24] $end
$var wire 1 F# \FD|PC|data_s\ [23] $end
$var wire 1 G# \FD|PC|data_s\ [22] $end
$var wire 1 H# \FD|PC|data_s\ [21] $end
$var wire 1 I# \FD|PC|data_s\ [20] $end
$var wire 1 J# \FD|PC|data_s\ [19] $end
$var wire 1 K# \FD|PC|data_s\ [18] $end
$var wire 1 L# \FD|PC|data_s\ [17] $end
$var wire 1 M# \FD|PC|data_s\ [16] $end
$var wire 1 N# \FD|PC|data_s\ [15] $end
$var wire 1 O# \FD|PC|data_s\ [14] $end
$var wire 1 P# \FD|PC|data_s\ [13] $end
$var wire 1 Q# \FD|PC|data_s\ [12] $end
$var wire 1 R# \FD|PC|data_s\ [11] $end
$var wire 1 S# \FD|PC|data_s\ [10] $end
$var wire 1 T# \FD|PC|data_s\ [9] $end
$var wire 1 U# \FD|PC|data_s\ [8] $end
$var wire 1 V# \FD|PC|data_s\ [7] $end
$var wire 1 W# \FD|PC|data_s\ [6] $end
$var wire 1 X# \FD|PC|data_s\ [5] $end
$var wire 1 Y# \FD|PC|data_s\ [4] $end
$var wire 1 Z# \FD|PC|data_s\ [3] $end
$var wire 1 [# \FD|PC|data_s\ [2] $end
$var wire 1 \# \FD|PC|data_s\ [1] $end
$var wire 1 ]# \FD|PC|data_s\ [0] $end
$upscope $end
$upscope $end
$enddefinitions $end
#0
$dumpvars
1!
1f
0g
1h
xi
1j
1k
1l
1m
1n
1o
1p
1W!
x\!
x]!
x^!
x_!
0`!
0a!
0b!
0c!
0d!
0e!
0f!
0g!
0h!
0i!
0j!
0k!
0l!
0m!
0n!
0o!
0p!
0q!
0r!
0s!
0t!
0u!
0v!
0w!
0x!
0y!
0z!
0{!
0|!
0}!
0~!
0!"
0""
0#"
0$"
0%"
0&"
0'"
0("
0)"
0*"
0+"
0,"
0-"
0."
0/"
00"
01"
02"
03"
04"
05"
06"
07"
08"
09"
0:"
0;"
0<"
0="
0>"
0?"
0@"
0A"
1B"
1C"
1D"
0E"
0F"
0G"
1H"
0I"
0J"
0K"
0L"
0M"
1N"
0O"
0P"
0Q"
0R"
0S"
0T"
1U"
1V"
1W"
1X"
0Y"
0Z"
0["
0\"
0]"
1^"
0_"
0`"
0a"
0b"
0c"
1d"
0e"
0f"
0g"
0h"
0i"
1j"
0k"
0l"
0m"
0n"
0o"
1p"
0q"
0r"
0s"
0t"
0u"
1v"
0w"
0x"
0y"
0z"
0{"
1|"
0}"
0~"
0!#
0"#
0##
1$#
0%#
0&#
0'#
0(#
0)#
1*#
0+#
0,#
0-#
0.#
0/#
10#
01#
02#
03#
04#
05#
16#
07#
08#
09#
1:#
0;#
0<#
0=#
xq
xr
xs
xt
0u
0v
0w
0x
0y
0z
0{
0|
0}
0~
0!!
0"!
0#!
0$!
0%!
0&!
0'!
0(!
0)!
0*!
0+!
0,!
0-!
0.!
0/!
00!
01!
02!
03!
04!
05!
06!
07!
08!
09!
0:!
0;!
0<!
0=!
0>!
0?!
0@!
0A!
0B!
0C!
0D!
0E!
0F!
0G!
0H!
0I!
0J!
0K!
0L!
0M!
0N!
0O!
0P!
0Q!
0R!
0S!
0T!
0U!
0V!
0>#
0?#
0@#
0A#
0B#
0C#
0D#
0E#
0F#
0G#
0H#
0I#
0J#
0K#
0L#
0M#
0N#
0O#
0P#
0Q#
0R#
0S#
0T#
0U#
0V#
0W#
0X#
0Y#
0Z#
0[#
x\#
x]#
1X!
1Y!
1Z!
1[!
x"
x#
x$
x%
0&
0'
0(
0)
0*
0+
0,
0-
0.
0/
00
01
02
03
04
05
06
07
08
09
0:
0;
0<
0=
0>
0?
0@
0A
0B
0C
0D
0E
0F
0G
0H
0I
0J
0K
0L
0M
0N
0O
0P
0Q
0R
0S
0T
0U
0V
0W
0X
0Y
0Z
0[
0\
0]
0^
0_
0`
0a
0b
0c
0d
0e
$end
#10000
0!
0p
0C"
0[!
0D"
#20000
1!
1p
1C"
1[!
1D"
1[#
0V"
1E"
1F"
0W"
1$"
1G"
1T!
1C
#30000
0!
0p
0C"
0[!
0D"
#40000
1!
1p
1C"
1[!
1D"
1Z#
0[#
1V"
0E"
0F"
0H"
1I"
0G"
1F"
1H"
1W"
0$"
1%"
0I"
1G"
1J"
0T!
1S!
0C
1B
0J"
#50000
0!
0p
0C"
0[!
0D"
#60000
1!
1p
1C"
1[!
1D"
1[#
0V"
1E"
0F"
0H"
0W"
1$"
1I"
0G"
1T!
1C
1J"
#70000
0!
0p
0C"
0[!
0D"
#80000
1!
1p
1C"
1[!
1D"
0Z#
1Y#
0[#
1V"
0E"
0I"
1K"
1F"
1H"
1I"
0K"
1G"
1L"
0J"
0F"
1W"
0$"
1&"
0%"
0G"
1M"
0L"
1J"
0T!
1R!
0S!
0C
0B
1A
0M"
#90000
0!
0p
0C"
0[!
0D"
#100000
1!
1p
1C"
1[!
1D"
1[#
0V"
1E"
1F"
0W"
1$"
1G"
1T!
1C
#110000
0!
0p
0C"
0[!
0D"
#120000
1!
1p
1C"
1[!
1D"
1Z#
0[#
1V"
0E"
0F"
0H"
0I"
1K"
0G"
1F"
1H"
1W"
0$"
1%"
1I"
0K"
1G"
1L"
0J"
0T!
1S!
0C
1B
1M"
0L"
1J"
0M"
#130000
0!
0p
0C"
0[!
0D"
#140000
1!
1p
1C"
1[!
1D"
1[#
0V"
1E"
0F"
0H"
0W"
1$"
0I"
1K"
0G"
1T!
1C
1L"
0J"
1M"
#150000
0!
0p
0C"
0[!
0D"
#160000
1!
1p
1C"
1[!
1D"
0Z#
0Y#
1X#
0[#
1V"
0E"
0L"
0N"
1I"
0K"
1F"
1H"
1T"
0U"
0I"
1G"
1L"
1N"
1J"
1O"
0M"
0F"
1W"
0$"
1'"
0&"
0%"
0O"
0G"
0J"
0W"
0T!
1Q!
0R!
0S!
0C
0B
0A
1@
#170000
0!
0p
0C"
0[!
0D"
#180000
1!
1p
1C"
1[!
1D"
0X#
0L"
0T"
1U"
0'"
1W"
0Q!
0@
#190000
0!
0p
0C"
0[!
0D"
#200000
1!
1p
1C"
1[!
1D"
1[#
0V"
1E"
1F"
0W"
1$"
1G"
1T!
1C
#210000
0!
0p
0C"
0[!
0D"
#220000
1!
1p
1C"
1[!
1D"
1Z#
0[#
1V"
0E"
0F"
0H"
1I"
0G"
1F"
1H"
1W"
0$"
1%"
0I"
1G"
1J"
0T!
1S!
0C
1B
0J"
#230000
0!
0p
0C"
0[!
0D"
#240000
1!
1p
1C"
1[!
1D"
1[#
0V"
1E"
0F"
0H"
0W"
1$"
1I"
0G"
1T!
1C
1J"
#250000
0!
0p
0C"
0[!
0D"
#260000
1!
1p
1C"
1[!
1D"
0Z#
1Y#
0[#
1V"
0E"
0I"
1K"
1F"
1H"
1I"
0K"
1G"
1L"
0J"
0F"
1W"
0$"
1&"
0%"
0G"
1M"
0L"
1J"
0T!
1R!
0S!
0C
0B
1A
0M"
#270000
0!
0p
0C"
0[!
0D"
#280000
1!
1p
1C"
1[!
1D"
1[#
0V"
1E"
1F"
0W"
1$"
1G"
1T!
1C
#290000
0!
0p
0C"
0[!
0D"
#300000
1!
1p
1C"
1[!
1D"
1Z#
0[#
1V"
0E"
0F"
0H"
0I"
1K"
0G"
1F"
1H"
1W"
0$"
1%"
1I"
0K"
1G"
1L"
0J"
0T!
1S!
0C
1B
1M"
0L"
1J"
0M"
#310000
0!
0p
0C"
0[!
0D"
#320000
1!
1p
1C"
1[!
1D"
1[#
0V"
1E"
0F"
0H"
0W"
1$"
0I"
1K"
0G"
1T!
1C
1L"
0J"
1M"
#330000
0!
0p
0C"
0[!
0D"
#340000
1!
1p
1C"
1[!
1D"
0Z#
0Y#
1X#
0[#
1V"
0E"
0L"
0N"
1I"
0K"
1F"
1H"
1T"
0U"
0I"
1G"
1L"
1N"
1J"
1O"
0M"
0F"
1W"
0$"
1'"
0&"
0%"
0O"
0G"
0J"
0W"
0T!
1Q!
0R!
0S!
0C
0B
0A
1@
#350000
0!
0p
0C"
0[!
0D"
#360000
1!
1p
1C"
1[!
1D"
0X#
0L"
0T"
1U"
0'"
1W"
0Q!
0@
#370000
0!
0p
0C"
0[!
0D"
#380000
1!
1p
1C"
1[!
1D"
1[#
0V"
1E"
1F"
0W"
1$"
1G"
1T!
1C
#390000
0!
0p
0C"
0[!
0D"
#400000
1!
1p
1C"
1[!
1D"
1Z#
0[#
1V"
0E"
0F"
0H"
1I"
0G"
1F"
1H"
1W"
0$"
1%"
0I"
1G"
1J"
0T!
1S!
0C
1B
0J"
#410000
0!
0p
0C"
0[!
0D"
#420000
1!
1p
1C"
1[!
1D"
1[#
0V"
1E"
0F"
0H"
0W"
1$"
1I"
0G"
1T!
1C
1J"
#430000
0!
0p
0C"
0[!
0D"
#440000
1!
1p
1C"
1[!
1D"
0Z#
1Y#
0[#
1V"
0E"
0I"
1K"
1F"
1H"
1I"
0K"
1G"
1L"
0J"
0F"
1W"
0$"
1&"
0%"
0G"
1M"
0L"
1J"
0T!
1R!
0S!
0C
0B
1A
0M"
#450000
0!
0p
0C"
0[!
0D"
#460000
1!
1p
1C"
1[!
1D"
1[#
0V"
1E"
1F"
0W"
1$"
1G"
1T!
1C
#470000
0!
0p
0C"
0[!
0D"
#480000
1!
1p
1C"
1[!
1D"
1Z#
0[#
1V"
0E"
0F"
0H"
0I"
1K"
0G"
1F"
1H"
1W"
0$"
1%"
1I"
0K"
1G"
1L"
0J"
0T!
1S!
0C
1B
1M"
0L"
1J"
0M"
#490000
0!
0p
0C"
0[!
0D"
#500000
1!
1p
1C"
1[!
1D"
1[#
0V"
1E"
0F"
0H"
0W"
1$"
0I"
1K"
0G"
1T!
1C
1L"
0J"
1M"
#510000
0!
0p
0C"
0[!
0D"
#520000
1!
1p
1C"
1[!
1D"
0Z#
0Y#
1X#
0[#
1V"
0E"
0L"
0N"
1I"
0K"
1F"
1H"
1T"
0U"
0I"
1G"
1L"
1N"
1J"
1O"
0M"
0F"
1W"
0$"
1'"
0&"
0%"
0O"
0G"
0J"
0W"
0T!
1Q!
0R!
0S!
0C
0B
0A
1@
#530000
0!
0p
0C"
0[!
0D"
#540000
1!
1p
1C"
1[!
1D"
0X#
0L"
0T"
1U"
0'"
1W"
0Q!
0@
#550000
0!
0p
0C"
0[!
0D"
#560000
1!
1p
1C"
1[!
1D"
1[#
0V"
1E"
1F"
0W"
1$"
1G"
1T!
1C
#570000
0!
0p
0C"
0[!
0D"
#580000
1!
1p
1C"
1[!
1D"
1Z#
0[#
1V"
0E"
0F"
0H"
1I"
0G"
1F"
1H"
1W"
0$"
1%"
0I"
1G"
1J"
0T!
1S!
0C
1B
0J"
#590000
0!
0p
0C"
0[!
0D"
#600000
1!
1p
1C"
1[!
1D"
1[#
0V"
1E"
0F"
0H"
0W"
1$"
1I"
0G"
1T!
1C
1J"
#610000
0!
0p
0C"
0[!
0D"
#620000
1!
1p
1C"
1[!
1D"
0Z#
1Y#
0[#
1V"
0E"
0I"
1K"
1F"
1H"
1I"
0K"
1G"
1L"
0J"
0F"
1W"
0$"
1&"
0%"
0G"
1M"
0L"
1J"
0T!
1R!
0S!
0C
0B
1A
0M"
#630000
0!
0p
0C"
0[!
0D"
#640000
1!
1p
1C"
1[!
1D"
1[#
0V"
1E"
1F"
0W"
1$"
1G"
1T!
1C
#650000
0!
0p
0C"
0[!
0D"
#660000
1!
1p
1C"
1[!
1D"
1Z#
0[#
1V"
0E"
0F"
0H"
0I"
1K"
0G"
1F"
1H"
1W"
0$"
1%"
1I"
0K"
1G"
1L"
0J"
0T!
1S!
0C
1B
1M"
0L"
1J"
0M"
#670000
0!
0p
0C"
0[!
0D"
#680000
1!
1p
1C"
1[!
1D"
1[#
0V"
1E"
0F"
0H"
0W"
1$"
0I"
1K"
0G"
1T!
1C
1L"
0J"
1M"
#690000
0!
0p
0C"
0[!
0D"
#700000
1!
1p
1C"
1[!
1D"
0Z#
0Y#
1X#
0[#
1V"
0E"
0L"
0N"
1I"
0K"
1F"
1H"
1T"
0U"
0I"
1G"
1L"
1N"
1J"
1O"
0M"
0F"
1W"
0$"
1'"
0&"
0%"
0O"
0G"
0J"
0W"
0T!
1Q!
0R!
0S!
0C
0B
0A
1@
#710000
0!
0p
0C"
0[!
0D"
#720000
1!
1p
1C"
1[!
1D"
0X#
0L"
0T"
1U"
0'"
1W"
0Q!
0@
#730000
0!
0p
0C"
0[!
0D"
#740000
1!
1p
1C"
1[!
1D"
1[#
0V"
1E"
1F"
0W"
1$"
1G"
1T!
1C
#750000
0!
0p
0C"
0[!
0D"
#760000
1!
1p
1C"
1[!
1D"
1Z#
0[#
1V"
0E"
0F"
0H"
1I"
0G"
1F"
1H"
1W"
0$"
1%"
0I"
1G"
1J"
0T!
1S!
0C
1B
0J"
#770000
0!
0p
0C"
0[!
0D"
#780000
1!
1p
1C"
1[!
1D"
1[#
0V"
1E"
0F"
0H"
0W"
1$"
1I"
0G"
1T!
1C
1J"
#790000
0!
0p
0C"
0[!
0D"
